



 / ___|  / \  | \ | | ____|_   _|_ _|       ___| |_   _ ___| |_ ___ _ __ 
| |  _  / _ \ |  \| |  _|   | |  | |       / __| | | | / __| __/ _ \ '__|
| |_| |/ ___ \| |\  | |___  | |  | |   _  | (__| | |_| \__ \ ||  __/ | _ 
 \____/_/   \_\_| \_|_____| |_| |___| (_)  \___|_|\__,_|___/\__\___|_|(_)


Admin: juraj.holtak@gmail.com
Hostname: {{template_host}}



